@startuml
class CrearRutinaFrame
class EjecutarRutinaFrame
class Ejercicio
class Historial
class HistorialUsuario
class InformacionEjercicios
class Main
class MenuUsuario
class ModificarRutina
class Registro
class Rutina
class UsuarioJFrame
class Usuarios
class java.awt.Color
class java.awt.Desktop
class java.awt.HeadlessException
class java.awt.Image
class java.awt.ImageIcon
class java.awt.Toolkit
class java.io.File
class java.io.FileInputStream
class java.io.FileOutputStream
class java.io.IOException
class java.io.ObjectInputStream
class java.io.ObjectOutputStream
class java.net.MalformedURLException
class java.net.URI
class java.net.URISyntaxException
class java.net.URL
class java.util.HashSet
class java.util.LinkedList
class java.util.Set
class java.util.logging.Level
class java.util.logging.Logger
class javax.swing.ImageIcon
class javax.swing.JFrame
class javax.swing.JOptionPane
class javax.swing.JTextField
interface MetodosEstablecidos
interface java.io.Serializable
CrearRutinaFrame --|> javax.swing.JFrame
EjecutarRutinaFrame --|> javax.swing.JFrame
Ejercicio --|> java.io.Serializable
Historial --|> java.io.Serializable
HistorialUsuario --|> javax.swing.JFrame
InformacionEjercicios --|> javax.swing.JFrame
MenuUsuario --|> javax.swing.JFrame
ModificarRutina --|> javax.swing.JFrame
Registro --|> javax.swing.JFrame
Rutina --|> java.io.Serializable
UsuarioJFrame --|> javax.swing.JFrame
Usuarios --|> java.io.Serializable
@enduml