@startuml
class CrearRutinaFrame
class EjecutarRutinaFrame
class Ejercicio
class Historial
class HistorialUsuario
class InformacionEjercicios
class Main
class MenuUsuario
class ModificarRutina
class Registro
class Rutina
class UsuarioJFrame
class Usuarios
class java.awt.Color
class java.awt.Desktop
class java.awt.HeadlessException
class java.awt.Image
class java.awt.ImageIcon
class java.awt.Toolkit
class java.io.File
class java.io.FileInputStream
class java.io.FileOutputStream
class java.io.IOException
class java.io.ObjectInputStream
class java.io.ObjectOutputStream
class java.net.MalformedURLException
class java.net.URI
class java.net.URISyntaxException
class java.net.URL
class java.util.HashSet
class java.util.LinkedList
class java.util.Set
class java.util.logging.Level
class java.util.logging.Logger
class javax.swing.ImageIcon
class javax.swing.JFrame
class javax.swing.JOptionPane
class javax.swing.JTextField
interface MetodosEstablecidos
interface java.io.Serializable
CrearRutinaFrame ..> java.awt.HeadlessException
CrearRutinaFrame ..> java.awt.Image
CrearRutinaFrame ..> java.awt.Toolkit
CrearRutinaFrame ..> java.io.File
CrearRutinaFrame ..> java.io.FileInputStream
CrearRutinaFrame ..> java.io.FileOutputStream
CrearRutinaFrame ..> java.io.IOException
CrearRutinaFrame ..> java.io.ObjectInputStream
CrearRutinaFrame ..> java.io.ObjectOutputStream
CrearRutinaFrame ..> java.util.LinkedList
CrearRutinaFrame ..> java.util.logging.Level
CrearRutinaFrame ..> java.util.logging.Logger
CrearRutinaFrame --|> javax.swing.JFrame
CrearRutinaFrame ..> javax.swing.JOptionPane
EjecutarRutinaFrame ..> java.awt.Image
EjecutarRutinaFrame ..> java.awt.Toolkit
EjecutarRutinaFrame ..> java.io.File
EjecutarRutinaFrame ..> java.io.FileInputStream
EjecutarRutinaFrame ..> java.io.FileOutputStream
EjecutarRutinaFrame ..> java.io.IOException
EjecutarRutinaFrame ..> java.io.ObjectInputStream
EjecutarRutinaFrame ..> java.io.ObjectOutputStream
EjecutarRutinaFrame ..> java.util.LinkedList
EjecutarRutinaFrame ..> java.util.logging.Level
EjecutarRutinaFrame ..> java.util.logging.Logger
EjecutarRutinaFrame --|> javax.swing.JFrame
EjecutarRutinaFrame ..> javax.swing.JOptionPane
Ejercicio --|> java.io.Serializable
Historial ..> java.util.LinkedList
Historial --|> java.io.Serializable
HistorialUsuario ..> java.awt.Image
HistorialUsuario ..> java.awt.Toolkit
HistorialUsuario ..> java.util.LinkedList
HistorialUsuario --|> javax.swing.JFrame
HistorialUsuario ..> javax.swing.JTextField
InformacionEjercicios ..> java.awt.Image
InformacionEjercicios ..> java.awt.Toolkit
InformacionEjercicios --|> javax.swing.JFrame
MenuUsuario ..> java.awt.Color
MenuUsuario ..> java.awt.Image
MenuUsuario ..> java.awt.Toolkit
MenuUsuario ..> java.io.File
MenuUsuario ..> java.io.FileInputStream
MenuUsuario ..> java.io.FileOutputStream
MenuUsuario ..> java.io.IOException
MenuUsuario ..> java.io.ObjectInputStream
MenuUsuario ..> java.io.ObjectOutputStream
MenuUsuario ..> java.util.HashSet
MenuUsuario ..> java.util.LinkedList
MenuUsuario ..> java.util.Set
MenuUsuario ..> java.util.logging.Level
MenuUsuario ..> java.util.logging.Logger
MenuUsuario --|> javax.swing.JFrame
MenuUsuario ..> javax.swing.JOptionPane
ModificarRutina ..> java.awt.Image
ModificarRutina ..> java.awt.Toolkit
ModificarRutina ..> java.io.File
ModificarRutina ..> java.io.FileInputStream
ModificarRutina ..> java.io.FileOutputStream
ModificarRutina ..> java.io.IOException
ModificarRutina ..> java.io.ObjectInputStream
ModificarRutina ..> java.io.ObjectOutputStream
ModificarRutina ..> java.util.LinkedList
ModificarRutina ..> java.util.logging.Level
ModificarRutina ..> java.util.logging.Logger
ModificarRutina --|> javax.swing.JFrame
ModificarRutina ..> javax.swing.JOptionPane
Registro ..> java.awt.Image
Registro ..> java.awt.Toolkit
Registro ..> java.io.File
Registro ..> java.io.FileInputStream
Registro ..> java.io.FileOutputStream
Registro ..> java.io.IOException
Registro ..> java.io.ObjectInputStream
Registro ..> java.io.ObjectOutputStream
Registro ..> java.util.LinkedList
Registro ..> java.util.logging.Level
Registro ..> java.util.logging.Logger
Registro --|> javax.swing.JFrame
Registro ..> javax.swing.JOptionPane
Rutina ..> java.util.LinkedList
Rutina --|> java.io.Serializable
UsuarioJFrame ..> java.awt.Desktop
UsuarioJFrame ..> java.awt.Image
UsuarioJFrame ..> java.awt.Toolkit
UsuarioJFrame ..> java.io.File
UsuarioJFrame ..> java.io.FileInputStream
UsuarioJFrame ..> java.io.FileOutputStream
UsuarioJFrame ..> java.io.IOException
UsuarioJFrame ..> java.io.ObjectInputStream
UsuarioJFrame ..> java.io.ObjectOutputStream
UsuarioJFrame ..> java.net.MalformedURLException
UsuarioJFrame ..> java.net.URI
UsuarioJFrame ..> java.net.URISyntaxException
UsuarioJFrame ..> java.net.URL
UsuarioJFrame ..> java.util.LinkedList
UsuarioJFrame ..> java.util.logging.Level
UsuarioJFrame ..> java.util.logging.Logger
UsuarioJFrame ..> javax.swing.ImageIcon
UsuarioJFrame --|> javax.swing.JFrame
UsuarioJFrame ..> javax.swing.JOptionPane
Usuarios ..> java.util.LinkedList
Usuarios --|> java.io.Serializable
@enduml