CrearRutinaFrame$11.class
UsuarioJFrame$5.class
CrearRutinaFrame$18.class
CrearRutinaFrame$31.class
CrearRutinaFrame$21.class
EjecutarRutinaFrame$3.class
MenuUsuario$7.class
CrearRutinaFrame$5.class
UsuarioJFrame$8.class
MenuUsuario$4.class
CrearRutinaFrame$24.class
CrearRutinaFrame$1.class
CrearRutinaFrame$14.class
Registro$3.class
CrearRutinaFrame$8.class
UsuarioJFrame$2.class
ModificarRutina$4.class
MenuUsuario$1.class
CrearRutinaFrame$27.class
CrearRutinaFrame$4.class
UsuarioJFrame$4.class
ModificarRutina$3.class
CrearRutinaFrame$32.class
java\awt\ImageIcon.class
CrearRutinaFrame$12.class
EjecutarRutinaFrame$2.class
ModificarRutina$6.class
Registro$2.class
CrearRutinaFrame$23.class
MenuUsuario$5.class
CrearRutinaFrame$15.class
MenuUsuario$8.class
CrearRutinaFrame$7.class
HistorialUsuario$2.class
UsuarioJFrame$1.class
Usuarios.class
CrearRutinaFrame$20.class
CrearRutinaFrame$26.class
EjecutarRutinaFrame$1.class
UsuarioJFrame.class
MenuUsuario.class
UsuarioJFrame$3.class
CrearRutinaFrame$13.class
CrearRutinaFrame$16.class
ModificarRutina$2.class
MenuUsuario$2.class
HistorialUsuario.class
MetodosEstablecidos.class
Main.class
UsuarioJFrame$7.class
HistorialUsuario$1.class
Historial.class
MenuUsuario$9.class
CrearRutinaFrame$6.class
EjecutarRutinaFrame.class
Registro$1.class
CrearRutinaFrame$3.class
Ejercicio.class
CrearRutinaFrame$29.class
Registro.class
CrearRutinaFrame$19.class
CrearRutinaFrame$17.class
InformacionEjercicios.class
InformacionEjercicios$1.class
ModificarRutina.class
CrearRutinaFrame$22.class
CrearRutinaFrame$9.class
ModificarRutina$5.class
ModificarRutina$1.class
MenuUsuario$6.class
CrearRutinaFrame.class
CrearRutinaFrame$33.class
Rutina.class
CrearRutinaFrame$2.class
UsuarioJFrame$6.class
CrearRutinaFrame$28.class
MenuUsuario$3.class
CrearRutinaFrame$25.class
EjecutarRutinaFrame$4.class
CrearRutinaFrame$10.class
CrearRutinaFrame$30.class
