C:\Users\bryam\Desktop\TEC\Tercer _Semestre\POO\Proyecto1\rutinas-de-entrenamiento\src\main\java\Rutina.java
C:\Users\bryam\Desktop\TEC\Tercer _Semestre\POO\Proyecto1\rutinas-de-entrenamiento\src\main\java\HistorialUsuario.java
C:\Users\bryam\Desktop\TEC\Tercer _Semestre\POO\Proyecto1\rutinas-de-entrenamiento\src\main\java\ModificarRutina.java
C:\Users\bryam\Desktop\TEC\Tercer _Semestre\POO\Proyecto1\rutinas-de-entrenamiento\src\main\java\Ejercicio.java
C:\Users\bryam\Desktop\TEC\Tercer _Semestre\POO\Proyecto1\rutinas-de-entrenamiento\src\main\java\Registro.java
C:\Users\bryam\Desktop\TEC\Tercer _Semestre\POO\Proyecto1\rutinas-de-entrenamiento\src\main\java\InformacionEjercicios.java
C:\Users\bryam\Desktop\TEC\Tercer _Semestre\POO\Proyecto1\rutinas-de-entrenamiento\src\main\java\UsuarioJFrame.java
C:\Users\bryam\Desktop\TEC\Tercer _Semestre\POO\Proyecto1\rutinas-de-entrenamiento\src\main\java\Main.java
C:\Users\bryam\Desktop\TEC\Tercer _Semestre\POO\Proyecto1\rutinas-de-entrenamiento\src\main\java\java\awt\ImageIcon.java
C:\Users\bryam\Desktop\TEC\Tercer _Semestre\POO\Proyecto1\rutinas-de-entrenamiento\src\main\java\CrearRutinaFrame.java
C:\Users\bryam\Desktop\TEC\Tercer _Semestre\POO\Proyecto1\rutinas-de-entrenamiento\src\main\java\Usuarios.java
C:\Users\bryam\Desktop\TEC\Tercer _Semestre\POO\Proyecto1\rutinas-de-entrenamiento\src\main\java\EjecutarRutinaFrame.java
C:\Users\bryam\Desktop\TEC\Tercer _Semestre\POO\Proyecto1\rutinas-de-entrenamiento\src\main\java\MetodosEstablecidos.java
C:\Users\bryam\Desktop\TEC\Tercer _Semestre\POO\Proyecto1\rutinas-de-entrenamiento\src\main\java\Historial.java
C:\Users\bryam\Desktop\TEC\Tercer _Semestre\POO\Proyecto1\rutinas-de-entrenamiento\src\main\java\MenuUsuario.java
